simulation/qsim/LogicalStep_Lab4.msim.vcd
$comment
	File created using the following command:
		vcd file LogicalStep_Lab4.msim.vcd -direction
$end
$date
	Wed Mar 26 10:08:00 2025
$end
$version
	ModelSim Version 10.5b
$end
$timescale
	1ps
$end

$scope module logicalstep_lab4_top_vhd_vec_tst $end
$var wire 1 ! blink_sig1 $end
$var wire 1 " clkin_50 $end
$var wire 1 # EW_a $end
$var wire 1 $ EW_d $end
$var wire 1 % EW_g $end
$var wire 1 & leds [7] $end
$var wire 1 ' leds [6] $end
$var wire 1 ( leds [5] $end
$var wire 1 ) leds [4] $end
$var wire 1 * leds [3] $end
$var wire 1 + leds [2] $end
$var wire 1 , leds [1] $end
$var wire 1 - leds [0] $end
$var wire 1 . NS_a $end
$var wire 1 / NS_d $end
$var wire 1 0 NS_g $end
$var wire 1 1 pb_n [3] $end
$var wire 1 2 pb_n [2] $end
$var wire 1 3 pb_n [1] $end
$var wire 1 4 pb_n [0] $end
$var wire 1 5 rst_n $end
$var wire 1 6 seg7_char1 $end
$var wire 1 7 seg7_char2 $end
$var wire 1 8 seg7_data [6] $end
$var wire 1 9 seg7_data [5] $end
$var wire 1 : seg7_data [4] $end
$var wire 1 ; seg7_data [3] $end
$var wire 1 < seg7_data [2] $end
$var wire 1 = seg7_data [1] $end
$var wire 1 > seg7_data [0] $end
$var wire 1 ? sm_clken1 $end
$var wire 1 @ sw [7] $end
$var wire 1 A sw [6] $end
$var wire 1 B sw [5] $end
$var wire 1 C sw [4] $end
$var wire 1 D sw [3] $end
$var wire 1 E sw [2] $end
$var wire 1 F sw [1] $end
$var wire 1 G sw [0] $end

$scope module i1 $end
$var wire 1 H gnd $end
$var wire 1 I vcc $end
$var wire 1 J unknown $end
$var wire 1 K devoe $end
$var wire 1 L devclrn $end
$var wire 1 M devpor $end
$var wire 1 N ww_devoe $end
$var wire 1 O ww_devclrn $end
$var wire 1 P ww_devpor $end
$var wire 1 Q ww_clkin_50 $end
$var wire 1 R ww_rst_n $end
$var wire 1 S ww_pb_n [3] $end
$var wire 1 T ww_pb_n [2] $end
$var wire 1 U ww_pb_n [1] $end
$var wire 1 V ww_pb_n [0] $end
$var wire 1 W ww_sw [7] $end
$var wire 1 X ww_sw [6] $end
$var wire 1 Y ww_sw [5] $end
$var wire 1 Z ww_sw [4] $end
$var wire 1 [ ww_sw [3] $end
$var wire 1 \ ww_sw [2] $end
$var wire 1 ] ww_sw [1] $end
$var wire 1 ^ ww_sw [0] $end
$var wire 1 _ ww_leds [7] $end
$var wire 1 ` ww_leds [6] $end
$var wire 1 a ww_leds [5] $end
$var wire 1 b ww_leds [4] $end
$var wire 1 c ww_leds [3] $end
$var wire 1 d ww_leds [2] $end
$var wire 1 e ww_leds [1] $end
$var wire 1 f ww_leds [0] $end
$var wire 1 g ww_seg7_data [6] $end
$var wire 1 h ww_seg7_data [5] $end
$var wire 1 i ww_seg7_data [4] $end
$var wire 1 j ww_seg7_data [3] $end
$var wire 1 k ww_seg7_data [2] $end
$var wire 1 l ww_seg7_data [1] $end
$var wire 1 m ww_seg7_data [0] $end
$var wire 1 n ww_seg7_char1 $end
$var wire 1 o ww_seg7_char2 $end
$var wire 1 p ww_sm_clken1 $end
$var wire 1 q ww_blink_sig1 $end
$var wire 1 r ww_EW_a $end
$var wire 1 s ww_EW_g $end
$var wire 1 t ww_EW_d $end
$var wire 1 u ww_NS_a $end
$var wire 1 v ww_NS_g $end
$var wire 1 w ww_NS_d $end
$var wire 1 x \pb_n[2]~input_o\ $end
$var wire 1 y \pb_n[3]~input_o\ $end
$var wire 1 z \sw[1]~input_o\ $end
$var wire 1 { \sw[2]~input_o\ $end
$var wire 1 | \sw[3]~input_o\ $end
$var wire 1 } \sw[4]~input_o\ $end
$var wire 1 ~ \sw[5]~input_o\ $end
$var wire 1 !! \sw[6]~input_o\ $end
$var wire 1 "! \sw[7]~input_o\ $end
$var wire 1 #! \seg7_data[6]~output_o\ $end
$var wire 1 $! \leds[0]~output_o\ $end
$var wire 1 %! \leds[1]~output_o\ $end
$var wire 1 &! \leds[2]~output_o\ $end
$var wire 1 '! \leds[3]~output_o\ $end
$var wire 1 (! \leds[4]~output_o\ $end
$var wire 1 )! \leds[5]~output_o\ $end
$var wire 1 *! \leds[6]~output_o\ $end
$var wire 1 +! \leds[7]~output_o\ $end
$var wire 1 ,! \seg7_data[0]~output_o\ $end
$var wire 1 -! \seg7_data[1]~output_o\ $end
$var wire 1 .! \seg7_data[2]~output_o\ $end
$var wire 1 /! \seg7_data[3]~output_o\ $end
$var wire 1 0! \seg7_data[4]~output_o\ $end
$var wire 1 1! \seg7_data[5]~output_o\ $end
$var wire 1 2! \seg7_char1~output_o\ $end
$var wire 1 3! \seg7_char2~output_o\ $end
$var wire 1 4! \sm_clken1~output_o\ $end
$var wire 1 5! \blink_sig1~output_o\ $end
$var wire 1 6! \EW_a~output_o\ $end
$var wire 1 7! \EW_g~output_o\ $end
$var wire 1 8! \EW_d~output_o\ $end
$var wire 1 9! \NS_a~output_o\ $end
$var wire 1 :! \NS_g~output_o\ $end
$var wire 1 ;! \NS_d~output_o\ $end
$var wire 1 <! \clkin_50~input_o\ $end
$var wire 1 =! \INST3|clk_divider:counter[0]~1_combout\ $end
$var wire 1 >! \rst_n~input_o\ $end
$var wire 1 ?! \INST2|sreg~1_combout\ $end
$var wire 1 @! \INST2|sreg~0_combout\ $end
$var wire 1 A! \INST3|clk_divider:counter[0]~q\ $end
$var wire 1 B! \INST3|clk_divider:counter[0]~2\ $end
$var wire 1 C! \INST3|clk_divider:counter[1]~1_combout\ $end
$var wire 1 D! \INST3|clk_divider:counter[1]~q\ $end
$var wire 1 E! \INST3|clk_divider:counter[1]~2\ $end
$var wire 1 F! \INST3|clk_divider:counter[2]~1_combout\ $end
$var wire 1 G! \INST3|clk_divider:counter[2]~q\ $end
$var wire 1 H! \INST3|clk_divider:counter[2]~2\ $end
$var wire 1 I! \INST3|clk_divider:counter[3]~1_combout\ $end
$var wire 1 J! \INST3|clk_divider:counter[3]~q\ $end
$var wire 1 K! \INST3|clk_divider:counter[3]~2\ $end
$var wire 1 L! \INST3|clk_divider:counter[4]~1_combout\ $end
$var wire 1 M! \INST3|clk_divider:counter[4]~q\ $end
$var wire 1 N! \INST3|clk_reg_extend~0_combout\ $end
$var wire 1 O! \INST3|clk_reg_extend~1_combout\ $end
$var wire 1 P! \INST3|sm_clken~combout\ $end
$var wire 1 Q! \pb_n[0]~input_o\ $end
$var wire 1 R! \INST6|sreg~1_combout\ $end
$var wire 1 S! \INST6|sreg~0_combout\ $end
$var wire 1 T! \INST7|sreg~0_combout\ $end
$var wire 1 U! \INST7|sreg~q\ $end
$var wire 1 V! \pb_n[1]~input_o\ $end
$var wire 1 W! \INST4|sreg~1_combout\ $end
$var wire 1 X! \INST4|sreg~0_combout\ $end
$var wire 1 Y! \INST5|sreg~0_combout\ $end
$var wire 1 Z! \INST5|sreg~q\ $end
$var wire 1 [! \sw[0]~input_o\ $end
$var wire 1 \! \INST8|Selector2~0_combout\ $end
$var wire 1 ]! \INST8|current_state.s15~q\ $end
$var wire 1 ^! \INST8|current_state~26_combout\ $end
$var wire 1 _! \INST8|current_state.S0~q\ $end
$var wire 1 `! \INST8|current_state~29_combout\ $end
$var wire 1 a! \INST8|current_state.S1~q\ $end
$var wire 1 b! \INST8|current_state~20_combout\ $end
$var wire 1 c! \INST8|current_state.S2~q\ $end
$var wire 1 d! \INST8|current_state~21_combout\ $end
$var wire 1 e! \INST8|current_state.S3~q\ $end
$var wire 1 f! \INST8|current_state~18_combout\ $end
$var wire 1 g! \INST8|current_state.S4~q\ $end
$var wire 1 h! \INST8|current_state~19_combout\ $end
$var wire 1 i! \INST8|current_state.S5~q\ $end
$var wire 1 j! \INST8|WideOr5~0_combout\ $end
$var wire 1 k! \INST8|Selector0~0_combout\ $end
$var wire 1 l! \INST8|current_state.S6~q\ $end
$var wire 1 m! \INST8|current_state~30_combout\ $end
$var wire 1 n! \INST8|current_state.S7~q\ $end
$var wire 1 o! \INST8|current_state~27_combout\ $end
$var wire 1 p! \INST8|current_state.s8~q\ $end
$var wire 1 q! \INST8|current_state~28_combout\ $end
$var wire 1 r! \INST8|current_state.s9~q\ $end
$var wire 1 s! \INST8|current_state~24_combout\ $end
$var wire 1 t! \INST8|current_state.s10~q\ $end
$var wire 1 u! \INST8|current_state~25_combout\ $end
$var wire 1 v! \INST8|current_state.s11~q\ $end
$var wire 1 w! \INST8|current_state~22_combout\ $end
$var wire 1 x! \INST8|current_state.s12~q\ $end
$var wire 1 y! \INST8|current_state~23_combout\ $end
$var wire 1 z! \INST8|current_state.s13~q\ $end
$var wire 1 {! \INST8|WideOr9~2_combout\ $end
$var wire 1 |! \INST8|Selector1~0_combout\ $end
$var wire 1 }! \INST8|current_state.s14~q\ $end
$var wire 1 ~! \INST8|yellowEW~combout\ $end
$var wire 1 !" \INST9|clk_proc:COUNT[0]~0_combout\ $end
$var wire 1 "" \INST9|clk_proc:COUNT[0]~q\ $end
$var wire 1 #" \INST9|clk_proc:COUNT[1]~1_combout\ $end
$var wire 1 $" \INST9|clk_proc:COUNT[1]~q\ $end
$var wire 1 %" \INST9|clk_proc:COUNT[1]~2\ $end
$var wire 1 &" \INST9|clk_proc:COUNT[2]~1_combout\ $end
$var wire 1 '" \INST9|clk_proc:COUNT[2]~q\ $end
$var wire 1 (" \INST9|clk_proc:COUNT[2]~2\ $end
$var wire 1 )" \INST9|clk_proc:COUNT[3]~1_combout\ $end
$var wire 1 *" \INST9|clk_proc:COUNT[3]~q\ $end
$var wire 1 +" \INST9|clk_proc:COUNT[3]~2\ $end
$var wire 1 ," \INST9|clk_proc:COUNT[4]~1_combout\ $end
$var wire 1 -" \INST9|clk_proc:COUNT[4]~q\ $end
$var wire 1 ." \INST9|clk_proc:COUNT[4]~2\ $end
$var wire 1 /" \INST9|clk_proc:COUNT[5]~1_combout\ $end
$var wire 1 0" \INST9|clk_proc:COUNT[5]~q\ $end
$var wire 1 1" \INST9|clk_proc:COUNT[5]~2\ $end
$var wire 1 2" \INST9|clk_proc:COUNT[6]~1_combout\ $end
$var wire 1 3" \INST9|clk_proc:COUNT[6]~q\ $end
$var wire 1 4" \INST9|clk_proc:COUNT[6]~2\ $end
$var wire 1 5" \INST9|clk_proc:COUNT[7]~1_combout\ $end
$var wire 1 6" \INST9|clk_proc:COUNT[7]~q\ $end
$var wire 1 7" \INST9|clk_proc:COUNT[7]~2\ $end
$var wire 1 8" \INST9|clk_proc:COUNT[8]~1_combout\ $end
$var wire 1 9" \INST9|clk_proc:COUNT[8]~q\ $end
$var wire 1 :" \INST9|clk_proc:COUNT[8]~2\ $end
$var wire 1 ;" \INST9|clk_proc:COUNT[9]~1_combout\ $end
$var wire 1 <" \INST9|clk_proc:COUNT[9]~q\ $end
$var wire 1 =" \INST9|clk_proc:COUNT[9]~2\ $end
$var wire 1 >" \INST9|clk_proc:COUNT[10]~1_combout\ $end
$var wire 1 ?" \INST9|clk_proc:COUNT[10]~q\ $end
$var wire 1 @" \INST8|yellow~0_combout\ $end
$var wire 1 A" \INST8|WideOr8~0_combout\ $end
$var wire 1 B" \INST8|WideOr10~0_combout\ $end
$var wire 1 C" \INST8|WideOr9~1_combout\ $end
$var wire 1 D" \INST8|WideOr9~0_combout\ $end
$var wire 1 E" \INST11|process_0~0_combout\ $end
$var wire 1 F" \INST10|sreg~1_combout\ $end
$var wire 1 G" \INST10|sreg~0_combout\ $end
$var wire 1 H" \INST8|WideOr8~1_combout\ $end
$var wire 1 I" \INST8|WideOr8~combout\ $end
$var wire 1 J" \INST8|WideOr3~0_combout\ $end
$var wire 1 K" \INST8|WideOr5~combout\ $end
$var wire 1 L" \INST11|process_0~1_combout\ $end
$var wire 1 M" \INST9|DOUT_TEMP[6]~0_combout\ $end
$var wire 1 N" \INST3|blink_sig~0_combout\ $end
$var wire 1 O" \INST3|blink_sig~q\ $end
$var wire 1 P" \INST9|DOUT_TEMP[6]~1_combout\ $end
$var wire 1 Q" \INST8|WideOr7~0_combout\ $end
$var wire 1 R" \INST8|WideOr10~combout\ $end
$var wire 1 S" \INST8|WideOr9~combout\ $end
$var wire 1 T" \INST9|DOUT[0]~0_combout\ $end
$var wire 1 U" \INST8|Selector4~0_combout\ $end
$var wire 1 V" \INST8|Selector3~2_combout\ $end
$var wire 1 W" \INST9|DOUT[3]~1_combout\ $end
$var wire 1 X" \INST10|sreg\ [1] $end
$var wire 1 Y" \INST10|sreg\ [0] $end
$var wire 1 Z" \INST2|sreg\ [1] $end
$var wire 1 [" \INST2|sreg\ [0] $end
$var wire 1 \" \INST3|clk_reg_extend\ [1] $end
$var wire 1 ]" \INST3|clk_reg_extend\ [0] $end
$var wire 1 ^" \INST6|sreg\ [1] $end
$var wire 1 _" \INST6|sreg\ [0] $end
$var wire 1 `" \INST4|sreg\ [1] $end
$var wire 1 a" \INST4|sreg\ [0] $end
$var wire 1 b" \INST0|sreg4\ [3] $end
$var wire 1 c" \INST0|sreg4\ [2] $end
$var wire 1 d" \INST0|sreg4\ [1] $end
$var wire 1 e" \INST0|sreg4\ [0] $end
$var wire 1 f" \INST0|sreg0\ [3] $end
$var wire 1 g" \INST0|sreg0\ [2] $end
$var wire 1 h" \INST0|sreg0\ [1] $end
$var wire 1 i" \INST0|sreg0\ [0] $end
$var wire 1 j" \INST0|sreg1\ [3] $end
$var wire 1 k" \INST0|sreg1\ [2] $end
$var wire 1 l" \INST0|sreg1\ [1] $end
$var wire 1 m" \INST0|sreg1\ [0] $end
$var wire 1 n" \INST8|ALT_INV_yellow~0_combout\ $end
$var wire 1 o" \INST8|ALT_INV_WideOr5~combout\ $end
$var wire 1 p" \INST8|ALT_INV_WideOr8~combout\ $end
$var wire 1 q" \INST8|ALT_INV_WideOr9~combout\ $end
$var wire 1 r" \INST8|ALT_INV_WideOr10~combout\ $end
$var wire 1 s" \INST8|ALT_INV_WideOr3~0_combout\ $end
$var wire 1 t" \INST9|ALT_INV_clk_proc:COUNT[10]~q\ $end
$upscope $end
$upscope $end
$enddefinitions $end
#0
$dumpvars
0!
0"
0#
0$
0%
0.
1/
00
05
06
17
0?
0H
1I
xJ
1K
1L
1M
1N
1O
1P
0Q
0R
0n
1o
0p
0q
0r
0s
0t
0u
0v
1w
0x
0y
xz
x{
x|
x}
x~
x!!
x"!
0#!
0$!
0%!
0&!
0'!
0(!
0)!
0*!
0+!
0,!
0-!
0.!
0/!
00!
01!
02!
13!
04!
05!
06!
07!
08!
09!
0:!
1;!
0<!
1=!
0>!
1?!
0@!
0A!
0B!
0C!
0D!
1E!
0F!
0G!
0H!
0I!
0J!
1K!
0L!
0M!
0N!
0O!
0P!
1Q!
1R!
0S!
0T!
0U!
1V!
1W!
0X!
0Y!
0Z!
0[!
0\!
0]!
1^!
0_!
1`!
0a!
0b!
0c!
0d!
0e!
0f!
0g!
0h!
0i!
0j!
0k!
0l!
0m!
0n!
0o!
0p!
0q!
0r!
0s!
0t!
0u!
0v!
0w!
0x!
0y!
0z!
1{!
0|!
0}!
0~!
1!"
0""
0#"
0$"
0%"
0&"
0'"
1("
0)"
0*"
0+"
0,"
0-"
1."
0/"
00"
01"
02"
03"
14"
05"
06"
07"
08"
09"
1:"
0;"
0<"
0="
0>"
0?"
1@"
0A"
0B"
1C"
0D"
0E"
0F"
0G"
0H"
1I"
1J"
1K"
0L"
0M"
0N"
0O"
0P"
0Q"
1R"
1S"
0T"
0U"
0V"
0W"
0n"
0o"
0p"
0q"
0r"
0s"
1t"
01
02
13
14
x@
xA
xB
xC
xD
xE
xF
0G
0S
0T
1U
1V
xW
xX
xY
xZ
x[
x\
x]
0^
0_
0`
0a
0b
0c
0d
0e
0f
0g
0h
0i
0j
0k
0l
0m
0X"
0Y"
0Z"
0["
0\"
0]"
0^"
0_"
0`"
0a"
0b"
0c"
0d"
0e"
0f"
0g"
0h"
0i"
0j"
0k"
0l"
0m"
0&
0'
0(
0)
0*
0+
0,
0-
08
09
0:
0;
0<
0=
0>
$end
#10000
1"
1Q
1<!
1["
1A!
1i"
1_"
1m"
1a"
1""
0!"
1#"
1X!
1S!
0=!
1B!
1@!
1C!
#20000
0"
0Q
0<!
#30000
1"
1Q
1<!
1Z"
0A!
1D!
1h"
1^"
1l"
1`"
0""
1$"
1!"
0C!
0E!
1=!
0B!
0?!
0@!
0R!
0S!
0W!
0X!
0^!
0`!
1C!
1E!
1F!
0F!
#40000
0"
0Q
0<!
#50000
1"
1Q
1<!
0["
0Z"
0D!
1g"
0_"
0^"
1k"
0a"
0`"
1""
0!"
0#"
1%"
0C!
1?!
1^!
1`!
1&"
#60000
0"
0Q
0<!
#70000
1"
1Q
1<!
1["
1A!
1f"
1j"
0""
0$"
1'"
0&"
0("
1!"
0%"
0=!
1B!
1@!
1C!
1&"
1("
1)"
0)"
#80000
0"
15
0Q
1R
1>!
0<!
#90000
1"
1Q
1<!
1e"
1Z"
0A!
1D!
1""
0!"
1#"
0C!
0E!
1=!
0B!
0?!
0@!
0^!
0`!
1C!
1E!
1F!
0F!
#100000
0"
0Q
0<!
#110000
1"
1Q
1<!
1d"
0["
0Z"
0D!
0""
1$"
1!"
0C!
1^!
1`!
#120000
0"
0Q
0<!
#130000
1"
1Q
1<!
1c"
1A!
1""
0!"
0#"
1%"
0=!
1B!
1C!
0&"
0("
1)"
#140000
0"
0Q
0<!
#150000
1"
1Q
1<!
1b"
0A!
1D!
0""
0$"
0'"
1*"
0)"
1+"
1&"
1("
1!"
0%"
0C!
0E!
1=!
0B!
1C!
1E!
1F!
0&"
1)"
0+"
1,"
0,"
0F!
#160000
0"
0Q
0<!
#170000
1"
1Q
1<!
1A!
1""
0!"
1#"
0=!
1B!
0C!
0E!
1F!
#180000
0"
0Q
0<!
#190000
1"
1Q
1<!
0A!
0D!
1G!
0""
1$"
1!"
0F!
1H!
1N"
1C!
1E!
1=!
0B!
0C!
1F!
0H!
1I!
0I!
#200000
0"
0Q
0<!
#210000
1"
1Q
1<!
1A!
1""
1O"
15!
1V"
0!"
0#"
1%"
0=!
1B!
1q
17!
1C!
1&"
1W"
1!
1s
1/!
1%
1j
1;
#220000
0"
0Q
0<!
#230000
1"
1Q
1<!
0A!
1D!
0""
0$"
1'"
0&"
0("
1!"
0%"
0C!
0E!
1=!
0B!
1C!
1E!
0F!
1H!
1&"
1("
0)"
1+"
1,"
1)"
0+"
1I!
1F!
0H!
0I!
0,"
#240000
0"
0Q
0<!
#250000
1"
1Q
1<!
1A!
1""
0!"
1#"
0=!
1B!
0C!
0E!
0F!
1H!
1I!
#260000
0"
0Q
0<!
#270000
1"
1Q
1<!
0A!
0D!
0G!
1J!
0""
1$"
1!"
0I!
0K!
1F!
0H!
0N"
1C!
1E!
1=!
0B!
0C!
0F!
1I!
1K!
1L!
0L!
#280000
0"
0Q
0<!
#290000
1"
1Q
1<!
1A!
1""
0O"
05!
0V"
0!"
0#"
1%"
0=!
1B!
0q
07!
1C!
0&"
0("
0W"
0!
0s
0/!
0)"
1+"
0%
0j
1,"
0;
#300000
0"
0Q
0<!
#310000
1"
1Q
1<!
0A!
1D!
0""
0$"
0'"
0*"
1-"
0,"
0."
1)"
0+"
1&"
1("
1!"
0%"
0C!
0E!
1=!
0B!
1C!
1E!
1F!
0&"
0)"
1,"
1."
1/"
0/"
0F!
#320000
0"
0Q
0<!
#330000
1"
1Q
1<!
1A!
1""
0!"
1#"
0=!
1B!
0C!
0E!
1F!
#340000
0"
0Q
0<!
#350000
1"
1Q
1<!
0A!
0D!
1G!
0""
1$"
1!"
0F!
1H!
1N"
1C!
1E!
1=!
0B!
0C!
1F!
0H!
0I!
0K!
1L!
1I!
1K!
0L!
#360000
0"
0Q
0<!
#370000
1"
1Q
1<!
1A!
1""
1O"
15!
1V"
0!"
0#"
1%"
0=!
1B!
1q
17!
1C!
1&"
1W"
1!
1s
1/!
1%
1j
1;
#380000
0"
0Q
0<!
#390000
1"
1Q
1<!
0A!
1D!
0""
0$"
1'"
0&"
0("
1!"
0%"
0C!
0E!
1=!
0B!
1C!
1E!
0F!
1H!
1&"
1("
1)"
0)"
0I!
0K!
1F!
0H!
1I!
1K!
1L!
0L!
#400000
0"
0Q
0<!
#410000
1"
1Q
1<!
1A!
1""
0!"
1#"
0=!
1B!
0C!
0E!
0F!
1H!
0I!
0K!
1L!
#420000
0"
0Q
0<!
#430000
1"
1Q
1<!
0A!
0D!
0G!
0J!
1M!
0""
1$"
1!"
0L!
1N!
1I!
1K!
1F!
0H!
0N"
1C!
1E!
1=!
0B!
0C!
0F!
0I!
1L!
#440000
0"
0Q
0<!
#450000
1"
1Q
1<!
1A!
1]"
1""
0O"
05!
0V"
0!"
0#"
1%"
1O!
1P!
0=!
1B!
0q
14!
07!
1C!
1_!
1a!
0&"
0("
0W"
0!
1p
0s
0/!
1)"
1b!
1H"
0`!
1A"
1?
0%
0j
0R"
0;
1r"
1(!
1b
1)
#460000
0"
0Q
0<!
#470000
1"
1Q
1<!
0A!
1D!
1\"
0""
0$"
0'"
1*"
0)"
1+"
1&"
1("
1!"
0%"
0P!
0C!
0E!
1=!
0B!
04!
1C!
1E!
1F!
0&"
1)"
0+"
0,"
0."
0p
1/"
1,"
1."
0F!
0?
0/"
#480000
0"
0Q
0<!
#490000
1"
1Q
1<!
1A!
1""
0!"
1#"
0=!
1B!
0C!
0E!
1F!
#500000
0"
0Q
0<!
#510000
1"
1Q
1<!
0A!
0D!
1G!
0""
1$"
1!"
0F!
1H!
1N"
1C!
1E!
1=!
0B!
0C!
1F!
0H!
1I!
0I!
#520000
0"
0Q
0<!
#530000
1"
1Q
1<!
1A!
1""
1O"
15!
1V"
0!"
0#"
1%"
0=!
1B!
1q
17!
1C!
1&"
1W"
1!
1s
1/!
1%
1j
1;
#540000
0"
0Q
0<!
#550000
1"
1Q
1<!
0A!
1D!
0""
0$"
1'"
0&"
0("
1!"
0%"
0C!
0E!
1=!
0B!
1C!
1E!
0F!
1H!
1&"
1("
0)"
1+"
0,"
0."
1)"
0+"
1I!
1F!
0H!
0I!
1,"
1."
1/"
0/"
#560000
0"
0Q
0<!
#570000
1"
1Q
1<!
1A!
1""
0!"
1#"
0=!
1B!
0C!
0E!
0F!
1H!
1I!
#580000
0"
0Q
0<!
#590000
1"
1Q
1<!
0A!
0D!
0G!
1J!
0""
1$"
1!"
0I!
0K!
1F!
0H!
0N"
1C!
1E!
1=!
0B!
0C!
0F!
1I!
1K!
0L!
1L!
#600000
0"
0Q
0<!
#610000
1"
1Q
1<!
1A!
1""
0O"
05!
0V"
0!"
0#"
1%"
0=!
1B!
0q
07!
1C!
0&"
0("
0W"
0!
0s
0/!
0)"
1+"
0%
0j
0,"
0."
0;
1/"
#620000
0"
0Q
0<!
#630000
1"
1Q
1<!
0A!
1D!
0""
0$"
0'"
0*"
0-"
10"
0/"
11"
1,"
1."
1)"
0+"
1&"
1("
1!"
0%"
0C!
0E!
1=!
0B!
1C!
1E!
1F!
0&"
0)"
0,"
1/"
01"
12"
02"
0F!
#640000
0"
0Q
0<!
#650000
1"
1Q
1<!
1A!
1""
0!"
1#"
0=!
1B!
0C!
0E!
1F!
#660000
0"
0Q
0<!
#670000
1"
1Q
1<!
0A!
0D!
1G!
0""
1$"
1!"
0F!
1H!
1N"
1C!
1E!
1=!
0B!
0C!
1F!
0H!
0I!
0K!
0L!
1I!
1K!
1L!
#680000
0"
0Q
0<!
#690000
1"
1Q
1<!
1A!
1""
1O"
15!
1V"
0!"
0#"
1%"
0=!
1B!
1q
17!
1C!
1&"
1W"
1!
1s
1/!
1%
1j
1;
#700000
0"
0Q
0<!
#710000
1"
1Q
1<!
0A!
1D!
0""
0$"
1'"
0&"
0("
1!"
0%"
0C!
0E!
1=!
0B!
1C!
1E!
0F!
1H!
1&"
1("
1)"
0)"
0I!
0K!
1F!
0H!
1I!
1K!
0L!
1L!
#720000
0"
0Q
0<!
#730000
1"
1Q
1<!
1A!
1""
0!"
1#"
0=!
1B!
0C!
0E!
0F!
1H!
0I!
0K!
0L!
#740000
0"
0Q
0<!
#750000
1"
1Q
1<!
0A!
0D!
0G!
0J!
0M!
0""
1$"
1!"
1L!
0N!
1I!
1K!
1F!
0H!
0N"
1C!
1E!
1=!
0B!
0C!
0F!
0I!
0L!
#760000
0"
0Q
0<!
#770000
1"
1Q
1<!
1A!
0]"
1""
0O"
05!
0V"
0!"
0#"
1%"
0O!
0=!
1B!
0q
07!
1C!
0&"
0("
0W"
0!
0s
0/!
1)"
0%
0j
0;
#780000
0"
0Q
0<!
#790000
1"
1Q
1<!
0A!
1D!
0\"
0""
0$"
0'"
1*"
0)"
1+"
1&"
1("
1!"
0%"
0C!
0E!
1=!
0B!
1C!
1E!
1F!
0&"
1)"
0+"
1,"
0,"
0F!
#800000
0"
0Q
0<!
#810000
1"
1Q
1<!
1A!
1""
0!"
1#"
0=!
1B!
0C!
0E!
1F!
#820000
0"
0Q
0<!
#830000
1"
1Q
1<!
0A!
0D!
1G!
0""
1$"
1!"
0F!
1H!
1N"
1C!
1E!
1=!
0B!
0C!
1F!
0H!
1I!
0I!
#840000
0"
0Q
0<!
#850000
1"
1Q
1<!
1A!
1""
1O"
15!
1V"
0!"
0#"
1%"
0=!
1B!
1q
17!
1C!
1&"
1W"
1!
1s
1/!
1%
1j
1;
#860000
0"
0Q
0<!
#870000
1"
1Q
1<!
0A!
1D!
0""
0$"
1'"
0&"
0("
1!"
0%"
0C!
0E!
1=!
0B!
1C!
1E!
0F!
1H!
1&"
1("
0)"
1+"
1,"
1)"
0+"
1I!
1F!
0H!
0I!
0,"
#880000
0"
0Q
0<!
#890000
1"
1Q
1<!
1A!
1""
0!"
1#"
0=!
1B!
0C!
0E!
0F!
1H!
1I!
#900000
0"
0Q
0<!
#910000
1"
1Q
1<!
0A!
0D!
0G!
1J!
0""
1$"
1!"
0I!
0K!
1F!
0H!
0N"
1C!
1E!
1=!
0B!
0C!
0F!
1I!
1K!
1L!
0L!
#920000
0"
0Q
0<!
#930000
1"
1Q
1<!
1A!
1""
0O"
05!
0V"
0!"
0#"
1%"
0=!
1B!
0q
07!
1C!
0&"
0("
0W"
0!
0s
0/!
0)"
1+"
0%
0j
1,"
0;
#940000
0"
0Q
0<!
#950000
1"
1Q
1<!
0A!
1D!
0""
0$"
0'"
0*"
1-"
0,"
0."
1)"
0+"
1&"
1("
1!"
0%"
0C!
0E!
1=!
0B!
1C!
1E!
1F!
0&"
0)"
1,"
1."
0/"
11"
12"
1/"
01"
0F!
02"
#960000
0"
0Q
0<!
#970000
1"
1Q
1<!
1A!
1""
0!"
1#"
0=!
1B!
0C!
0E!
1F!
#980000
0"
0Q
0<!
#990000
1"
1Q
1<!
0A!
0D!
1G!
0""
1$"
1!"
0F!
1H!
1N"
1C!
1E!
1=!
0B!
0C!
1F!
0H!
0I!
0K!
1L!
1I!
1K!
0L!
#1000000
0"
0Q
0<!
#1010000
1"
1Q
1<!
1A!
1""
1O"
15!
1V"
0!"
0#"
1%"
0=!
1B!
1q
17!
1C!
1&"
1W"
1!
1s
1/!
1%
1j
1;
#1020000
0"
0Q
0<!
#1030000
1"
1Q
1<!
0A!
1D!
0""
0$"
1'"
0&"
0("
1!"
0%"
0C!
0E!
1=!
0B!
1C!
1E!
0F!
1H!
1&"
1("
1)"
0)"
0I!
0K!
1F!
0H!
1I!
1K!
1L!
0L!
#1040000
0"
0Q
0<!
#1050000
1"
1Q
1<!
1A!
1""
0!"
1#"
0=!
1B!
0C!
0E!
0F!
1H!
0I!
0K!
1L!
#1060000
0"
0Q
0<!
#1070000
1"
1Q
1<!
0A!
0D!
0G!
0J!
1M!
0""
1$"
1!"
0L!
1N!
1I!
1K!
1F!
0H!
0N"
1C!
1E!
1=!
0B!
0C!
0F!
0I!
1L!
#1080000
0"
0Q
0<!
#1090000
1"
1Q
1<!
1A!
1]"
1""
0O"
05!
0V"
0!"
0#"
1%"
1O!
1P!
0=!
1B!
0q
14!
07!
1C!
0a!
1c!
0&"
0("
0W"
0!
1p
0s
0/!
1)"
1d!
0A"
0J"
0b!
1j!
0C"
0H"
1?
0%
1s"
0j
0S"
1V"
1R"
0;
1$!
0r"
1q"
17!
1W"
1f
1)!
0(!
1s
1-
1/!
1a
0b
1%
1j
0)
1(
1;
#1100000
0"
0Q
0<!
#1110000
1"
1Q
1<!
0A!
1D!
1\"
0""
0$"
0'"
1*"
0)"
1+"
1&"
1("
1!"
0%"
0P!
0C!
0E!
1=!
0B!
04!
1C!
1E!
1F!
0&"
1)"
0+"
0,"
0."
0p
0/"
11"
1,"
1."
0F!
0?
1/"
01"
12"
02"
#1120000
0"
0Q
0<!
#1130000
1"
1Q
1<!
1A!
1""
0!"
1#"
0=!
1B!
0C!
0E!
1F!
#1140000
0"
0Q
0<!
#1150000
1"
1Q
1<!
0A!
0D!
1G!
0""
1$"
1!"
0F!
1H!
1N"
1C!
1E!
1=!
0B!
0C!
1F!
0H!
1I!
0I!
#1160000
0"
0Q
0<!
#1170000
1"
1Q
1<!
1A!
1""
1O"
15!
0!"
0#"
1%"
0=!
1B!
1q
1C!
1&"
1!
#1180000
0"
0Q
0<!
#1190000
1"
1Q
1<!
0A!
1D!
0""
0$"
1'"
0&"
0("
1!"
0%"
0C!
0E!
1=!
0B!
1C!
1E!
0F!
1H!
1&"
1("
0)"
1+"
0,"
0."
1)"
0+"
1I!
1F!
0H!
0I!
1,"
1."
0/"
11"
12"
1/"
01"
02"
#1200000
0"
0Q
0<!
#1210000
1"
1Q
1<!
1A!
1""
0!"
1#"
0=!
1B!
0C!
0E!
0F!
1H!
1I!
#1220000
0"
0Q
0<!
